{
  "id" : "f6c93876-4607-11ec-a577-b7f7500e00ea",
  "effective" : {
    "in" : ["CA-QC", "CA-NB"],
    "from" : "2021-04-01T00:00",
    "to" : "2022-03-31T23:59",
    "tz" : "UTC-05:00"
  },
  "input_conditions" : [
    {
      "key" : "container_status",
      "expression" : "=loaded",
      "scenarios" : [
        "00", "11", "00", "01", "01", "01", "00", "10"
      ]
    },
    {
      "key" : "validation",
      "expression" : "=inspected",
      "scenarios" : [
        "00", "11", "11", "00", "01", "00", "01", "01"
      ]
    },
    {
      "key" : "door_status",
      "expression" : "=locked",
      "scenarios" : [
        "11", "01", "00", "01", "00", "00", "01", "01"
      ]
    }
  ],
  "output_assertions" : [
    {
      "assertion" : { "risk_code" : "green" },
      "scenarios" : [
        "01", "01", "00", "00", "00", "00", "01", "01"
      ]
    },
    {
      "assertion" : { "risk_code" : "yellow" },
      "scenarios" : [
        "00", "00", "01", "00", "01", "01", "00", "00"
      ]
    },
    {
      "assertion" : { "risk_code" : "red" },
      "scenarios" : [
        "00", "00", "00", "01", "00", "00", "00", "00"
      ]
    },
    {
      "assertion" : { "stevedore" : "notified" },
      "scenarios" : [
        "11", "10", "11", "01", "01", "01", "00", "10"
      ]
    },
    {
      "assertion" : { "insurance" : "errors_and_omissions" },
      "scenarios" : [
        "00", "01", "01", "10", "01", "00", "00", "01"
      ]
    }
  ]
}
